[
    {
        "name": "abcd",
        "password": "passwordok",
        "profession": "da banh",
        "id": "1"
    },
    {
        "name": "viet",
        "password": "password2",
        "profession": "da banh",
        "id": 2
    },
    {
        "name": "dung",
        "password": "password2",
        "profession": "da banh",
        "id": 3
    },
    {
        "name": "ok",
        "password": "passwordok",
        "profession": "da banh",
        "id": "4"
    },
    {
        "name": "huong",
        "password": "password1",
        "profession": "sinhvien",
        "id": 5
    },
    {
        "name": "viet",
        "password": "password2",
        "profession": "da banh",
        "id": 6
    },
    {
        "name": "dung",
        "password": "password2",
        "profession": "da banh",
        "id": 7
    },
    {
        "name": "manh",
        "password": "password2",
        "profession": "da banh",
        "id": 8
    }
]